{
    "prepare_queue": {
        "installed": [],
        "uninstalled": []
    },
    "config_munge": {
        "files": {}
    },
    "installed_plugins": {
        "cordova-plugin-whitelist": {
            "PACKAGE_NAME": "com.coolappz.chetos"
        },
        "phonegap-plugin-push": {
            "PACKAGE_NAME": "com.coolappz.chetos"
        },
        "cordova-plugin-dialogs": {
            "PACKAGE_NAME": "com.coolappz.chetos"
        },
        "cordova-plugin-vibration": {
            "PACKAGE_NAME": "com.coolappz.chetos"
        },
        "cordova-plugin-console": {
            "PACKAGE_NAME": "com.coolappz.chetos"
        },
        "cordova-plugin-globalization": {
            "PACKAGE_NAME": "com.coolappz.chetos"
        },
        "cordova-plugin-native-settings": {
            "PACKAGE_NAME": "com.coolappz.chetos"
        },
        "cordova-plugin-device": {
            "PACKAGE_NAME": "com.coolappz.chetos"
        },
        "cordova-plugin-geolocation": {
            "PACKAGE_NAME": "com.coolappz.chetos"
        }
    },
    "dependent_plugins": {
        "cordova-plugin-compat": {
            "PACKAGE_NAME": "com.coolappz.chetos"
        }
    }
}